<?xml version="1.0" standalone="no"?>
<!-- Generator: Adobe Fireworks 10, Export SVG Extension by Aaron Beall (http://fireworks.abeall.com) . Version: 0.6.1  -->
<!DOCTYPE svg PUBLIC "-//W3C//DTD SVG 1.1//EN" "http://www.w3.org/Graphics/SVG/1.1/DTD/svg11.dtd">
<svg id="Untitled-P%E1gina%201" viewBox="0 0 18 28" style="background-color:#ffffff00" version="1.1"
	xmlns="http://www.w3.org/2000/svg" xmlns:xlink="http://www.w3.org/1999/xlink" xml:space="preserve"
	x="0px" y="0px" width="18px" height="28px"
>
	<g id="Capa%201">
		<path d="M 10.8 5.25 C 12.4778 5.25 13.8911 6.3728 14.2884 7.8835 C 14.4114 8.3518 14.8026 8.75 15.3 8.75 L 17.1 8.75 C 17.5975 8.75 18.0062 8.3552 17.9437 7.8767 C 17.5008 4.4263 14.4659 1.75 10.8 1.75 L 10.8 0.875 C 10.8 0.3914 10.3975 0 9.9 0 L 8.1 0 C 7.6025 0 7.2 0.3914 7.2 0.875 L 7.2 1.75 C 3.23 1.75 0 4.8894 0 8.75 C 0 12.6106 3.23 15.75 7.2 15.75 L 7.2 22.75 C 5.5222 22.75 4.1089 21.6272 3.7116 20.1165 C 3.5886 19.6482 3.1974 19.25 2.7 19.25 L 0.9 19.25 C 0.4025 19.25 -0.0062 19.6448 0.0563 20.1233 C 0.4992 23.5737 3.5341 26.25 7.2 26.25 L 7.2 27.125 C 7.2 27.6086 7.6025 28 8.1 28 L 9.9 28 C 10.3975 28 10.8 27.6086 10.8 27.125 L 10.8 26.25 C 14.77 26.25 18 23.1106 18 19.25 C 18 15.3894 14.77 12.25 10.8 12.25 L 10.8 5.25 ZM 3.6 8.75 C 3.6 6.8206 5.2145 5.25 7.2 5.25 L 7.2 12.25 C 5.2145 12.25 3.6 10.6794 3.6 8.75 ZM 10.8 22.75 L 10.8 15.75 C 12.7855 15.75 14.4 17.3206 14.4 19.25 C 14.4 21.1794 12.7855 22.75 10.8 22.75 Z" fill="#000000"/>
	</g>
</svg>