<?xml version="1.0" standalone="no"?>
<!-- Generator: Adobe Fireworks 10, Export SVG Extension by Aaron Beall (http://fireworks.abeall.com) . Version: 0.6.1  -->
<!DOCTYPE svg PUBLIC "-//W3C//DTD SVG 1.1//EN" "http://www.w3.org/Graphics/SVG/1.1/DTD/svg11.dtd">
<svg id="Untitled-P%E1gina%201" viewBox="0 0 17 16" style="background-color:#ffffff00" version="1.1"
	xmlns="http://www.w3.org/2000/svg" xmlns:xlink="http://www.w3.org/1999/xlink" xml:space="preserve"
	x="0px" y="0px" width="17px" height="16px"
>
	<g id="Capa%201">
		<g>
			<path d="M 15.5 0 L 1.5 0 C 0.9473 0 0.5 0.4473 0.5 1 L 0.5 15 C 0.5 15.5527 0.9473 16 1.5 16 L 15.5 16 C 16.0527 16 16.5 15.5527 16.5 15 L 16.5 1 C 16.5 0.4473 16.0527 0 15.5 0 ZM 14.5 2 L 14.5 7 L 11.9648 7 L 10.5 9.1973 L 6.7773 3.6133 C 6.624 3.3828 6.376 3.3828 6.2227 3.6133 L 3.9648 7 L 2.5 7 L 2.5 2 L 14.5 2 ZM 2.5 14 L 2.5 9 L 5.0352 9 L 6.5 6.8027 L 10.2227 12.3867 C 10.376 12.6172 10.624 12.6172 10.7773 12.3867 L 13.0352 9 L 14.5 9 L 14.5 14 L 2.5 14 Z" fill="#000000"/>
		</g>
	</g>
</svg>